\relax 
\providecommand\hyper@newdestlabel[2]{}
\providecommand\HyperFirstAtBeginDocument{\AtBeginDocument}
\HyperFirstAtBeginDocument{\ifx\hyper@anchor\@undefined
\global\let\oldcontentsline\contentsline
\gdef\contentsline#1#2#3#4{\oldcontentsline{#1}{#2}{#3}}
\global\let\oldnewlabel\newlabel
\gdef\newlabel#1#2{\newlabelxx{#1}#2}
\gdef\newlabelxx#1#2#3#4#5#6{\oldnewlabel{#1}{{#2}{#3}}}
\AtEndDocument{\ifx\hyper@anchor\@undefined
\let\contentsline\oldcontentsline
\let\newlabel\oldnewlabel
\fi}
\fi}
\global\let\hyper@last\relax 
\gdef\HyperFirstAtBeginDocument#1{#1}
\providecommand\HyField@AuxAddToFields[1]{}
\providecommand\HyField@AuxAddToCoFields[2]{}
\citation{Hennessy2012,Balasubramonian2011,Jacob2008}
\citation{Seshadri2014}
\citation{Hennessy2012,Balasubramonian2011,Patterson2009,Jacob2008,Smith1982}
\citation{Hennessy2012}
\citation{Seshadri2014}
\citation{SimpleScalar2004}
\citation{Hubner2011,Keckler2009}
\citation{Hennessy2012,Wulf1995}
\citation{Seshadri2014}
\citation{Hennessy2012,Shen2005a,Culler1999}
\@writefile{toc}{\contentsline {section}{\numberline {1}Introduction}{2}{section.1}}
\newlabel{sec:Introduction}{{1}{2}{Introduction}{section.1}{}}
\@writefile{toc}{\contentsline {subsection}{\numberline {1.1}Motivation}{2}{subsection.1.1}}
\newlabel{ssec:Motivation}{{1.1}{2}{Motivation}{subsection.1.1}{}}
\citation{Null2012,Stallings2010,Patterson2009}
\citation{Shen2005a}
\citation{Null2012}
\citation{Ho2001}
\citation{Cogez2011,Dally2001}
\citation{Hennessy2012,Shen2005a,Dandamudi2003,Smith1982}
\citation{Seshadri2014}
\citation{Jaleel2008,Lee2010,Qureshi2007,K2012,Stuecheli2010}
\citation{Seshadri2014}
\citation{Seshadri2014}
\citation{Seshadri2014}
\citation{Seshadri2014}
\citation{Seshadri2014}
\citation{Seshadri2014}
\citation{Seshadri2014}
\citation{Seshadri2014}
\@writefile{toc}{\contentsline {subsection}{\numberline {1.2}Background Information}{3}{subsection.1.2}}
\newlabel{ssec:BackgroundInformation}{{1.2}{3}{Background Information}{subsection.1.2}{}}
\@writefile{toc}{\contentsline {section}{\numberline {2}Related Work}{3}{section.2}}
\newlabel{sec:RelatedWork}{{2}{3}{Related Work}{section.2}{}}
\@writefile{toc}{\contentsline {section}{\numberline {3}Dirty-Block Index Structure}{3}{section.3}}
\newlabel{sec:DirtyBlockIndexStructure}{{3}{3}{Dirty-Block Index Structure}{section.3}{}}
\@writefile{toc}{\contentsline {section}{\numberline {4}Dirty-Block Index Operations}{3}{section.4}}
\newlabel{sec:DirtyBlockIndexOperations}{{4}{3}{Dirty-Block Index Operations}{section.4}{}}
\citation{Seshadri2014}
\citation{Seshadri2014}
\@writefile{lof}{\contentsline {figure}{\numberline {1}{\ignorespaces Structure of a conventional cache, with storage for its cache tag \cite  {Seshadri2014}.\relax }}{4}{figure.caption.2}}
\providecommand*\caption@xref[2]{\@setref\relax\@undefined{#1}}
\newlabel{fig:conventionalcachetagstore}{{1}{4}{Structure of a conventional cache, with storage for its cache tag \cite {Seshadri2014}.\relax }{figure.caption.2}{}}
\@writefile{toc}{\contentsline {subsection}{\numberline {4.1}Dirty-Block Index Replacement Policies}{4}{subsection.4.1}}
\newlabel{ssec:DirtyBlockIndexReplacementPolicies}{{4.1}{4}{Dirty-Block Index Replacement Policies}{subsection.4.1}{}}
\citation{Kim2014b,SPEC1999}
\citation{SPEC2014}
\citation{Seshadri2014}
\@writefile{lof}{\contentsline {figure}{\numberline {2}{\ignorespaces Structure of a last-level cache with a dirty-block index \cite  {Seshadri2014}.\relax }}{5}{figure.caption.3}}
\newlabel{fig:cachetagstorewdbi}{{2}{5}{Structure of a last-level cache with a dirty-block index \cite {Seshadri2014}.\relax }{figure.caption.3}{}}
\@writefile{toc}{\contentsline {section}{\numberline {5}Performance Analysis Methodology}{5}{section.5}}
\newlabel{sec:PerformanceAnalysisMethodology}{{5}{5}{Performance Analysis Methodology}{section.5}{}}
\@writefile{toc}{\contentsline {section}{\numberline {6}Experimental Results and Discussion}{5}{section.6}}
\newlabel{sec:ExperimentalResultsandDiscussion}{{6}{5}{Experimental Results and Discussion}{section.6}{}}
\citation{Qureshi2007}
\citation{Jaleel2008}
\citation{MicronTechnology2014}
\citation{Seshadri2014}
\@writefile{lof}{\contentsline {figure}{\numberline {3}{\ignorespaces Structure of a last-level cache with a dirty-block index \cite  {Seshadri2014}.\relax }}{6}{figure.caption.4}}
\newlabel{fig:granularity2}{{3}{6}{Structure of a last-level cache with a dirty-block index \cite {Seshadri2014}.\relax }{figure.caption.4}{}}
\@writefile{lot}{\contentsline {table}{\numberline {1}{\ignorespaces Configuration of the Dirty-Block Index's parameters. \relax }}{6}{table.caption.7}}
\newlabel{tab:DBIconfiguration}{{1}{6}{Configuration of the Dirty-Block Index's parameters. \relax }{table.caption.7}{}}
\@writefile{toc}{\contentsline {section}{\numberline {7}Future Work}{6}{section.7}}
\newlabel{sec:FutureWork}{{7}{6}{Future Work}{section.7}{}}
\citation{Olukotun2007}
\citation{Binkert2011,gem5developers2014}
\citation{Bailey2010a,Bailey2007,Kempf2011,Leupers2010,Monchiero2008,Shen2005a,Vachharajani2004}
\citation{Muralimanohar2007}
\@writefile{lof}{\contentsline {figure}{\numberline {4}{\ignorespaces Structure of a last-level cache with a dirty-block index \cite  {Seshadri2014}.\relax }}{7}{figure.caption.5}}
\newlabel{fig:granularity}{{4}{7}{Structure of a last-level cache with a dirty-block index \cite {Seshadri2014}.\relax }{figure.caption.5}{}}
\@writefile{toc}{\contentsline {section}{\numberline {8}Conclusions}{7}{section.8}}
\newlabel{sec:Conclusions}{{8}{7}{Conclusions}{section.8}{}}
\newlabel{sec:Acknowledgments}{{8}{7}{Acknowledgments}{section*.8}{}}
\@writefile{lof}{\contentsline {figure}{\numberline {5}{\ignorespaces Sequential ordering of DBI operations: 1) read access to the cache; 2) write back request to the cache; 3) cache eviction; and 4) DBI eviction \cite  {Seshadri2014}.\relax }}{8}{figure.caption.6}}
\newlabel{fig:dbioperations}{{5}{8}{Sequential ordering of DBI operations: 1) read access to the cache; 2) write back request to the cache; 3) cache eviction; and 4) DBI eviction \cite {Seshadri2014}.\relax }{figure.caption.6}{}}
\newlabel{sec:AppendixADivisionofLabor}{{8}{8}{Appendix A: Division of Labor}{section*.9}{}}
\newlabel{sec:AppendixBImplementationIssuesinSimpleScalar}{{8}{9}{Appendix B: Implementation Issues in {\it SimpleScalar}}{section*.10}{}}
\bibstyle{plain}
\bibdata{/data/research/antipastobibtex/references}
\bibcite{Bailey2010a}{1}
\bibcite{Bailey2007}{2}
\bibcite{Balasubramonian2011}{3}
\bibcite{Binkert2011}{4}
\bibcite{Cogez2011}{5}
\bibcite{Culler1999}{6}
\bibcite{Dally2001}{7}
\bibcite{Dandamudi2003}{8}
\bibcite{gem5developers2014}{9}
\bibcite{Hennessy2012}{10}
\bibcite{Ho2001}{11}
\bibcite{Hubner2011}{12}
\bibcite{Jacob2008}{13}
\bibcite{Jaleel2008}{14}
\bibcite{K2012}{15}
\bibcite{Keckler2009}{16}
\bibcite{Kempf2011}{17}
\bibcite{Kim2014b}{18}
\bibcite{Lee2010}{19}
\bibcite{Leupers2010}{20}
\bibcite{MicronTechnology2014}{21}
\bibcite{Monchiero2008}{22}
\bibcite{Muralimanohar2007}{23}
\bibcite{Null2012}{24}
\bibcite{Olukotun2007}{25}
\bibcite{Patterson2009}{26}
\bibcite{Qureshi2007}{27}
\bibcite{Seshadri2014}{28}
\bibcite{Shen2005a}{29}
\bibcite{SimpleScalar2004}{30}
\bibcite{Smith1982}{31}
\bibcite{Stallings2010}{32}
\bibcite{SPEC1999}{33}
\bibcite{SPEC2014}{34}
\bibcite{Stuecheli2010}{35}
\bibcite{Vachharajani2004}{36}
\bibcite{Wulf1995}{37}
