time: cannot run ./RUNammp: No such file or directory
Command exited with non-zero status 127
0.00user 0.00system 0:00.00elapsed 0%CPU (0avgtext+0avgdata 332maxresident)k
0inputs+8outputs (0major+69minor)pagefaults 0swaps
