\relax 
\citation{Hennessy2012,Balasubramonian2011,Jacob2008}
\citation{Seshadri2014}
\citation{SimpleScalar2004}
\citation{Hennessy2012,Balasubramonian2011,Patterson2014,Jacob2008,Smith1982}
\citation{Hennessy2012}
\citation{Seshadri2014}
\citation{SimpleScalar2004}
\citation{SPEC1999,Kim2014b}
\citation{SPEC2014}
\citation{SPEC2014a}
\citation{Hennessy2012}
\citation{Hennessy2012,Shen2005a,Culler1999}
\citation{Null2012}
\citation{Shen2005a}
\citation{Null2012}
\citation{Ho2001}
\citation{Cogez2011,Dally2001}
\citation{Hennessy2012,Shen2005a,Dandamudi2003,Smith1982}
\@writefile{toc}{\contentsline {section}{\numberline {I}Introduction}{1}}
\newlabel{sec:Introduction}{{I}{1}}
\@writefile{toc}{\contentsline {subsection}{\numberline {\unhbox \voidb@x \hbox {I-A}}Motivation}{1}}
\newlabel{ssec:Motivation}{{\unhbox \voidb@x \hbox {I-A}}{1}}
\@writefile{toc}{\contentsline {subsection}{\numberline {\unhbox \voidb@x \hbox {I-B}}Background Information}{1}}
\newlabel{ssec:BackgroundInformation}{{\unhbox \voidb@x \hbox {I-B}}{1}}
\bibstyle{IEEEtran}
\bibdata{references}
\bibcite{Hennessy2012}{1}
\bibcite{Balasubramonian2011}{2}
\bibcite{Jacob2008}{3}
\bibcite{Seshadri2014}{4}
\bibcite{SimpleScalar2004}{5}
\bibcite{Patterson2014}{6}
\bibcite{Smith1982}{7}
\bibcite{SPEC1999}{8}
\bibcite{Kim2014b}{9}
\bibcite{SPEC2014}{10}
\bibcite{SPEC2014a}{11}
\@writefile{toc}{\contentsline {section}{\numberline {II}Related Work}{2}}
\newlabel{sec:RelatedWork}{{II}{2}}
\@writefile{toc}{\contentsline {section}{\numberline {III}Project Management Plan}{2}}
\newlabel{sec:ProjectManagementPlan}{{III}{2}}
\@writefile{toc}{\contentsline {section}{\numberline {IV}Proposed Experimental Methodology}{2}}
\newlabel{sec:ProposedExperimentalMethodology}{{IV}{2}}
\newlabel{sec:Acknowledgments}{{IV}{2}}
\@writefile{toc}{\contentsline {section}{References}{2}}
\@writefile{lof}{\contentsline {figure}{\numberline {1}{\ignorespaces INSERT CAPTION HERE}}{2}}
\newlabel{fig:INSERT LABEL OF FIGURE}{{1}{2}}
\bibcite{Shen2005a}{12}
\bibcite{Culler1999}{13}
\bibcite{Null2012}{14}
\bibcite{Ho2001}{15}
\bibcite{Cogez2011}{16}
\bibcite{Dally2001}{17}
\bibcite{Dandamudi2003}{18}
