\relax 
\citation{Hennessy2012,Balasubramonian2011,Jacob2008}
\citation{Seshadri2014}
\citation{SimpleScalar2004}
\citation{Hennessy2012,Balasubramonian2011,Patterson2014,Jacob2008,Smith1982}
\citation{Hennessy2012}
\citation{Seshadri2014}
\citation{SimpleScalar2004}
\citation{SPEC1999,Kim2014b}
\citation{SPEC2014}
\citation{SPEC2014a}
\citation{Seshadri2014}
\citation{Seshadri2014}
\@writefile{toc}{\contentsline {section}{\numberline {I}Introduction}{1}}
\newlabel{sec:Introduction}{{I}{1}}
\@writefile{toc}{\contentsline {subsection}{\numberline {\unhbox \voidb@x \hbox {I-A}}Motivation}{1}}
\newlabel{ssec:Motivation}{{\unhbox \voidb@x \hbox {I-A}}{1}}
\citation{Kim2014b}
\citation{SPEC2014}
\citation{SPEC2014a}
\bibstyle{IEEEtran}
\bibdata{references}
\bibcite{Hennessy2012}{1}
\bibcite{Balasubramonian2011}{2}
\bibcite{Jacob2008}{3}
\bibcite{Seshadri2014}{4}
\bibcite{SimpleScalar2004}{5}
\@writefile{toc}{\contentsline {subsection}{\numberline {\unhbox \voidb@x \hbox {I-B}}Background Information}{2}}
\newlabel{ssec:BackgroundInformation}{{\unhbox \voidb@x \hbox {I-B}}{2}}
\@writefile{toc}{\contentsline {section}{\numberline {II}Related Work}{2}}
\newlabel{sec:RelatedWork}{{II}{2}}
\@writefile{toc}{\contentsline {section}{\numberline {III}Project Management Plan}{2}}
\newlabel{sec:ProjectManagementPlan}{{III}{2}}
\@writefile{lof}{\contentsline {figure}{\numberline {1}{\ignorespaces Project Gantt Chart }}{2}}
\newlabel{gantt}{{1}{2}}
\@writefile{toc}{\contentsline {section}{\numberline {IV}Proposed Experimental Methodology}{2}}
\newlabel{sec:ProposedExperimentalMethodology}{{IV}{2}}
\newlabel{sec:Acknowledgments}{{IV}{2}}
\@writefile{toc}{\contentsline {section}{References}{2}}
\bibcite{Patterson2014}{6}
\bibcite{Smith1982}{7}
\bibcite{SPEC1999}{8}
\bibcite{Kim2014b}{9}
\bibcite{SPEC2014}{10}
\bibcite{SPEC2014a}{11}
