% Generated by IEEEtran.bst, version: 1.12 (2007/01/11)
\begin{thebibliography}{10}
\providecommand{\url}[1]{#1}
\csname url@samestyle\endcsname
\providecommand{\newblock}{\relax}
\providecommand{\bibinfo}[2]{#2}
\providecommand{\BIBentrySTDinterwordspacing}{\spaceskip=0pt\relax}
\providecommand{\BIBentryALTinterwordstretchfactor}{4}
\providecommand{\BIBentryALTinterwordspacing}{\spaceskip=\fontdimen2\font plus
\BIBentryALTinterwordstretchfactor\fontdimen3\font minus
  \fontdimen4\font\relax}
\providecommand{\BIBforeignlanguage}[2]{{%
\expandafter\ifx\csname l@#1\endcsname\relax
\typeout{** WARNING: IEEEtran.bst: No hyphenation pattern has been}%
\typeout{** loaded for the language `#1'. Using the pattern for}%
\typeout{** the default language instead.}%
\else
\language=\csname l@#1\endcsname
\fi
#2}}
\providecommand{\BIBdecl}{\relax}
\BIBdecl

\bibitem{Hennessy2012}
J.~L. Hennessy and D.~A. Patterson, \emph{Computer Architecture: A Quantitative
  Approach}, 5th~ed.\hskip 1em plus 0.5em minus 0.4em\relax Waltham, {MA}:
  Morgan Kaufmann, 2012.

\bibitem{Balasubramonian2011}
R.~Balasubramonian, N.~P. Jouppi, and N.~Muralimanohar, \emph{Multi-Core Cache
  Hierarchies}, ser. Synthesis Lectures on Computer Architecture.\hskip 1em
  plus 0.5em minus 0.4em\relax San Rafael, {CA}: Morgan {\rm \&} Claypool
  Publishers, November 2011.

\bibitem{Jacob2008}
B.~Jacob, S.~Ng, and D.~Wang, \emph{Memory Systems: Cache, {DRAM}, Disk}.\hskip
  1em plus 0.5em minus 0.4em\relax Burlington, {MA}: Elsevier Inc., 2008.

\bibitem{Seshadri2014}
V.~Seshadri, A.~Bhowmick, O.~Mutlu, P.~B. Gibbons, M.~A. Kozuch, and T.~C.
  Mowry, ``The {Dirty-Block} index,'' in \emph{Proceedings of the $41^{st}$
  Annual International Symposium on Computer Architecuture ({ISCA 2014})},
  {IEEE} Computer Society {TCCA}.\hskip 1em plus 0.5em minus 0.4em\relax
  Minneapolis, {MN}: {IEEE} Press, June 14--18 2014, pp. 157--168.

\bibitem{SimpleScalar2004}
\BIBentryALTinterwordspacing
{SimpleScalar LLC}, ``Simplescalar 3.0,'' Available online at:
  \url{http://www.simplescalar.com/tools.html},
  \url{http://www.simplescalar.com/agreement.php3?simplesim-3v0e.tgz}, and
  \url{http://www.simplescalar.com/}; October 9, 2014 was the last accessed
  date, Ann Arbor, {MI}, 2004. [Online]. Available:
  \url{http://www.simplescalar.com/tools.html}
\BIBentrySTDinterwordspacing

\bibitem{Patterson2014}
D.~A. Patterson and J.~L. Hennessy, \emph{Computer Organization and Design: The
  Hardware/Software Interface}, 5th~ed.\hskip 1em plus 0.5em minus 0.4em\relax
  Waltham, {MA}: Morgan Kaufmann, 2014.

\bibitem{Smith1982}
A.~J. Smith, ``Cache memories,'' \emph{{ACM} Computing Surveys}, vol.~14,
  no.~3, pp. 473--530, September 1982.

\bibitem{SPEC1999}
\BIBentryALTinterwordspacing
{Standard Performance Evaluation Corporation}, ``{SPEC CPU2000 V1.3 (RETIRED:
  February 2007)},'' Available online at: \url{http://www.spec.org/cpu2000/};
  October 9, 2014 was the last accessed date, Gainesville, {VA}, December 30
  1999. [Online]. Available: \url{http://www.spec.org/cpu2000/}
\BIBentrySTDinterwordspacing

\bibitem{Kim2014b}
\BIBentryALTinterwordspacing
K.~Kim, ``{SPEC CPU2000} binaries for {\it alpha} processors,'' Available
  online as {SPEC2000 Alpha} binaries from Kyung-Hoon Kim's web page at:
  \url{http://students.cse.tamu.edu/khkim/teaching/csce614/spec2000binary.tgz};
  October 27, 2014 was the last accessed date, College Station, {TX}, September
  29 2014. [Online]. Available:
  \url{http://students.cse.tamu.edu/khkim/teaching/csce614/spec2000binary.tgz}
\BIBentrySTDinterwordspacing

\bibitem{SPEC2014}
\BIBentryALTinterwordspacing
{Standard Performance Evaluation Corporation}, ``{SPEC CPU}$^{\texttrademark}$
  2006,'' Available online at: \url{http://spec.org/cpu2006/}; October 27, 2014
  was the last accessed date, Gainesville, {VA}, June 10 2014. [Online].
  Available: \url{http://spec.org/cpu2006/}
\BIBentrySTDinterwordspacing

\bibitem{SPEC2014a}
\BIBentryALTinterwordspacing
------, ``Purchase current {SPEC} benchmark suites,'' Available online at:
  \url{http://spec.org/order.html}; October 27, 2014 was the last accessed
  date, Gainesville, {VA}, October 14 2014. [Online]. Available:
  \url{http://spec.org/order.html}
\BIBentrySTDinterwordspacing

\end{thebibliography}
